{
    "app-id" : "org.example.TabOverview",
    "runtime" : "org.gnome.Platform",
    "runtime-version" : "master",
    "sdk" : "org.gnome.Sdk",
    "command" : "tabs-mobile",
    "finish-args" : [
        "--share=network",
        "--share=ipc",
        "--socket=x11",
        "--socket=wayland",
        "--device=dri",
        "--talk-name=org.a11y.Bus"
    ],
    "cleanup" : [
        "/include",
        "/lib/pkgconfig",
        "/man",
        "/share/doc",
        "/share/gtk-doc",
        "/share/man",
        "/share/pkgconfig",
        "/share/vala",
        "*.la",
        "*.a"
    ],
    "modules" : [
    {
      "name" : "libsass",
      "buildsystem" : "meson",
      "sources" : [
        {
          "type" : "git",
          "url" : "https://github.com/lazka/libsass.git",
          "branch" : "meson"
        }
      ]
    },
    {
      "name" : "sassc",
      "buildsystem" : "meson",
      "sources" : [
        {
          "type" : "git",
          "url" : "https://github.com/lazka/sassc.git",
          "branch" : "meson"
        }
      ]
    },
        {
            "name" : "libadwaita",
            "buildsystem" : "meson",
            "config-opts" : [
                "-Dtests=false",
                "-Dexamples=false"
            ],
            "sources" : [
                {
                    "type" : "git",
                    "url" : "https://gitlab.gnome.org/GNOME/libadwaita.git",
                    "branch" : "main"
                }
            ]
        },
        {
            "name" : "tabs-mobile",
            "builddir" : true,
            "buildsystem" : "meson",
            "sources" : [
                {
                    "type" : "git",
                    "url" : "file:///home/alexm/Projects/tabs-mobile"
                }
            ]
        }
    ]
}
